%YAML 1.1
%TAG !u! tag:unity3d.com,2011:
--- !u!114 &11400000
MonoBehaviour:
  m_ObjectHideFlags: 0
  m_CorrespondingSourceObject: {fileID: 0}
  m_PrefabInstance: {fileID: 0}
  m_PrefabAsset: {fileID: 0}
  m_GameObject: {fileID: 0}
  m_Enabled: 1
  m_EditorHideFlags: 0
  m_Script: {fileID: 11500000, guid: 97841064e27c442f3b45f0e2079b716c, type: 3}
  m_Name: 2Rollcake
  m_EditorClassIdentifier: 
  type: 4
  particle: {fileID: 1978309707650864, guid: 0d5b2acf0cd20417c80c6715503f101f, type: 3}
  animationData:
    frames:
    - {fileID: 21300000, guid: d9440bb7d5dbff2449e0564bc008a2ec, type: 3}
    - {fileID: 21300000, guid: 18604ab39cc68e8429c1529f6ad503df, type: 3}
    - {fileID: 21300000, guid: 346f24afff6349c48980b8557643e921, type: 3}
    - {fileID: 21300000, guid: 5d849659df880f94eb1f285a017de6c8, type: 3}
    - {fileID: 21300000, guid: ffd8b90f1c8635e4e81fd0a71b92aa35, type: 3}
    - {fileID: 21300000, guid: ff0f51cc1c918c349bd71bb0d29c6cee, type: 3}
    - {fileID: 21300000, guid: ca7f3a60f71d83846bceafcb59588ead, type: 3}
    - {fileID: 21300000, guid: bfb25772e732c5345a79c09d01976da3, type: 3}
    - {fileID: 21300000, guid: 3bdbda6a9d3c90e43a0e290701543ba1, type: 3}
    - {fileID: 21300000, guid: d4dd08c389877d6478a420f2d46c6c72, type: 3}
    - {fileID: 21300000, guid: c3017f7821b0f344eb4137f9cf73fd65, type: 3}
    - {fileID: 21300000, guid: 7acc5737fa57ab24d96ca101b545c4c5, type: 3}
    - {fileID: 21300000, guid: ba2d4273e355d9f4da329a8de8a6e6d3, type: 3}
    - {fileID: 21300000, guid: 6947b88ce8304224888c0ff12e1f376c, type: 3}
    - {fileID: 21300000, guid: 048f8f6eaf406514aa72ea5d3009a655, type: 3}
    - {fileID: 21300000, guid: 9a59264db1f46b445bf0f947b0a0936c, type: 3}
    - {fileID: 21300000, guid: 9cacd035b8e76f7428f3ccd39775893e, type: 3}
    - {fileID: 21300000, guid: 094435b47cb784f4f8f48a7c3419cec6, type: 3}
    - {fileID: 21300000, guid: eb6a37b7e9ef9c34abf78442832f2317, type: 3}
    - {fileID: 21300000, guid: 49f55d9b23927a14291a94722f354137, type: 3}
    - {fileID: 21300000, guid: 1855f3be34b03e5449ff0fa45ebb32c7, type: 3}
    - {fileID: 21300000, guid: d71e2fda8fed30641b37ccaf8d1ef09c, type: 3}
    - {fileID: 21300000, guid: 9929cbeb88c39e041b580aca979a9335, type: 3}
    - {fileID: 21300000, guid: 67c62f433e9fe3e43aa7384a09e5ff84, type: 3}
    - {fileID: 21300000, guid: db7b0b445bfccb544971ebae8d5feed5, type: 3}
    - {fileID: 21300000, guid: 49e1042fc976d4049b1e151094bfa94d, type: 3}
    - {fileID: 21300000, guid: 7e2ba6d86947b7645a87c9ab53802bfb, type: 3}
    - {fileID: 21300000, guid: a3ceeddce1e93414f8db9408fe3f3d09, type: 3}
    - {fileID: 21300000, guid: 8ae22f9c84a6d764d8a2f1257c28eae5, type: 3}
    - {fileID: 21300000, guid: a9e983b47e338b248a6736c41d8d140a, type: 3}
    - {fileID: 21300000, guid: 93f44e09b1539694aa1df7e7836e9ebd, type: 3}
    - {fileID: 21300000, guid: 8df68384cf140f34d93c7be98aedc188, type: 3}
    - {fileID: 21300000, guid: fe70ecdafffa1b94c8cbdbf7dca4758c, type: 3}
    - {fileID: 21300000, guid: 15dfed1f5c8961d4a8a972dd171f18d6, type: 3}
    - {fileID: 21300000, guid: 16668adca3f5b07429e99e1b24e64b70, type: 3}
    - {fileID: 21300000, guid: fb6153069c53c45408cff5a62e5b4993, type: 3}
    - {fileID: 21300000, guid: 4098426acfe9ee54c981b0b699a89a6c, type: 3}
    - {fileID: 21300000, guid: c0240382923838c44af7a48455a269f6, type: 3}
    - {fileID: 21300000, guid: 553fbd65912b74e4daed8ed3d0c76500, type: 3}
    - {fileID: 21300000, guid: fc1efb77d62fd2f41a55fae890c445f8, type: 3}
    - {fileID: 21300000, guid: 6f79706080a474f4d8eab312482a5649, type: 3}
    - {fileID: 21300000, guid: 3c5eb570648e50d4d8989abbd8aa925c, type: 3}
    - {fileID: 21300000, guid: 774130afd0c72354a9ca4ca80082c51e, type: 3}
    - {fileID: 21300000, guid: 246082b46b82ae44580eefd439d5e5bf, type: 3}
    duration: 1
    delay: 0
  sprite: {fileID: 21300000, guid: d9440bb7d5dbff2449e0564bc008a2ec, type: 3}
  rule:
    reward:
    - 0
    - 0
    - 8
    - 25
    - 70
    substitutesForWild: 1
